{
    "mongoURI":"mongodb+srv://omid123:omid123@sciencepo-5vcvx.mongodb.net/test?retryWrites=true&w=majority",
    "jwtSecret":"mysecrettoken",
    "githubClientId":"dae9bd9cbac9164a278b",
    "githubSecret":"f9bd015fbb6ee3eed6b575dffd0452b3f3fd3fb8"
}